<svg xmlns="http://www.w3.org/2000/svg" width="29" height="29" viewBox="0 0 29 29">
    <g fill="none" fill-rule="evenodd">
        <g>
            <g>
                <g>
                    <g>
                        <path fill="#2D5FAB" d="M14.5 0C22.508 0 29 6.492 29 14.5S22.508 29 14.5 29 0 22.508 0 14.5 6.492 0 14.5 0" transform="translate(-412 -324) translate(233 324) translate(179)"/>
                        <path fill="#FFF" d="M15.574 19.246c0 1.204-.006 2.407.006 3.611 0 .202-.052.276-.266.27-.8-.011-1.606-.005-2.407-.005-.316 0-.316 0-.316-.322v-7.01c0-.484.004-.403-.404-.408-.472-.006-.944-.006-1.417 0-.173.005-.225-.058-.225-.225.006-.79.006-1.579 0-2.367 0-.196.082-.248.26-.248.507.006 1.02-.006 1.526.006.213.006.264-.075.264-.27 0-.79-.004-1.58.024-2.368.046-1.434.91-2.609 2.32-3.081.64-.213 1.303-.259 1.97-.23l1.244.052c.098.004.208.004.294.045.058.023.138.11.138.167-.005.766-.023 1.532-.034 2.299 0 .155-.109.172-.219.172-.328 0-.662-.017-.99-.006-.37.012-.743.012-1.113.075-.373.063-.563.305-.604.68-.022.235-.04.472-.04.703-.005.518.006 1.03-.005 1.55-.006.177.057.218.224.218.84-.006 1.676.005 2.517-.006.219 0 .288.063.277.283-.041.771-.064 1.542-.093 2.314-.006.18-.08.242-.265.242-.812-.011-1.618 0-2.43-.005-.179 0-.23.051-.23.23-.006 1.209-.006 2.418-.006 3.634" transform="translate(-412 -324) translate(233 324) translate(179)"/>
                    </g>
                </g>
            </g>
        </g>
    </g>
</svg>
